Cleaning Datasets
…
Logic is to look for a string that starts with 1 or 2 digits followed by a hyphen, set the first 1/2digits as a capture group.

Exclude the first hyphen from any capture groups.

Create a new capture group that is everything after the hyphen.

Replace any strings that start with 1 digit or 2 digits with the 2nd capture group, followed by a hyphen, followed by the first capture group.

[1] "15-30-2"  "15-30-20" "17-35-34" "12-22-7"

Jack Penzer

Step three - Remove white space and the tilde at the end of legal

# A tibble: 9,052 × 2
   TRS      legal 
   <chr>    <chr> 
 1 12-47-1  SE 1/4
 2 12-47-1  NE 1/4
 3 12-47-1  SW 1/4
 4 12-47-1  NW 1/4
 5 12-47-10 S 1/2 
 6 12-47-10 NE 1/4
 7 12-47-10 NW 1/4
 8 12-47-11 E 1/2 
 9 12-47-11 W 1/2 
10 12-47-12 W 1/2 
# … with 9,042 more rows
…
